{
    "id": 0,
    "name": "path_bee",
    "properties": {
        "nodes": [
            [
                [
                    "0",
                    "0",
                    "0"
                ],
                "1.0"
            ],
            [
                [
                    "200",
                    "400",
                    "0"
                ],
                "1.0"
            ],
            [
                [
                    "800",
                    "400",
                    "0"
                ],
                "2.0"
            ],
            [
                [
                    "500",
                    "200",
                    "0"
                ],
                "1.0"
            ]
        ],
        "control_points": {
            "0": [
                "0",
                "200",
                "0"
            ],
            "1": [
                "500",
                "600",
                "0"
            ],
            "2": [
                "800",
                "200",
                "0"
            ],
            "3": [
                "nan",
                "nan",
                "nan"
            ]
        }
    }
}