{
    "id": 0,
    "name": "rm_win",
    "properties": {
        "width": 1920,
        "height": 1080,
        "is_persistent": false,
        "backgrounds": {
            "bk_vortex": {
                "texture": "bk_vortex",
                "is_visible": true,
                "is_foreground": false,
                "transform": {
                    "x": 0,
                    "y": 0,
                    "is_horizontal_tile": false,
                    "is_vertical_tile": false,
                    "horizontal_speed": 0,
                    "vertical_speed": 0,
                    "is_stretched": true
                }
            }
        },
        "viewports": {},
        "instances": [
            [
                [
                    "obj_lattice"
                ],
                [
                    0.0,
                    0.0,
                    0.0
                ],
                {}
            ]
        ],
        "gravity": [
            0.0,
            0.0,
            0.0
        ],
        "scale": 100.0
    }
}