{{
	"first_room": "{firstRoom}",
	"resources": {{
		"textures": [
{textures}
		],

		"sounds": [
{sounds}
		],

		"fonts": [
{fonts}
		],

		"paths": [
{paths}
		],

		"timelines": [
{timelines}
		],

		"meshes": [
{meshes}
		],

		"lights": [
{lights}
		],

		"scripts": [
{scripts}
		],

		"objects": [
{objects}
		],

		"rooms": [
{rooms}
		]
	}}
}}
